<?xml version="1.0" encoding="UTF-8"?>
<svg width="1440px" height="630px" viewBox="0 0 1440 630" version="1.1" xmlns="http://www.w3.org/2000/svg" xmlns:xlink="http://www.w3.org/1999/xlink">
    <title>Mask</title>
    <defs>
        <polygon id="path-1" points="297.977631 29.7648948 327.742526 0 509.41929 0 524.301737 14.8824474 623.5 14.8824474 638.382447 29.7648948 1096.18636 29.7648948 1111.06881 14.8824474 1188.22601 14.8824474 1203.10845 29.7648948 1440 29.7648948 1440 630 1134 630 1117.15202 613.152015 992.271552 613.152015 975.423567 630 305 630 288.152015 613.152015 288.152015 630 152.178648 630 135.330664 613.152015 70.5497077 613.152015 53.7017231 630 0 630 0 29.7648948"></polygon>
    </defs>
    <g id="Main-Copy" stroke="none" stroke-width="1" fill="none" fill-rule="evenodd">
        <g id="Homepage" transform="translate(0.000000, -2962.000000)">
            <g id="1071826" transform="translate(0.000000, 2962.000000)">
                <mask id="mask-2" fill="white">
                    <use xlink:href="#path-1"></use>
                </mask>
                <g id="Mask"></g>
            </g>
        </g>
    </g>
</svg>